[
    {"id":1,"name":"PARDUS MTB Naik","price":20750,"url":"https://velothebest.com/images/product_images/popup_images/7359_0.jpg","art":34567,"color":"blue","addFavorites":false},
    {"id":2,"name":"BIANCHI  DUEL","price":26975,"url":"https://velothebest.com/images/product_images/popup_images/7140_0.jpg","art":23456,"color":"red","addFavorites":false},
    {"id":3,"name":"BIANCHI  DUEL Disc H Black","price":26975,"url":"https://velothebest.com/images/product_images/popup_images/7141_0.jpg","art":23456,"color":"grey","addFavorites":false},
    {"id":4,"name":"Bulls SIX50","price":62250,"url":"https://velothebest.com/images/product_images/popup_images/post_2153.jpg","art":1234,"color":"yellow","addFavorites":false},
    {"id":5,"name":"JTURCHESE G alu TX35","price":15148,"url":"https://velothebest.com/images/product_images/popup_images/post_5187.jpg","art":6543,"color":"blue","addFavorites":false},
    {"id":6,"name":"BIANCHI City C-Sport Dama ","price":26145,"url":"https://velothebest.com/images/product_images/popup_images/7270_0.jpg","art":45673,"color":"red","addFavorites":false},
    {"id":7,"name":"BIANCHI City C-Sport","price":26145,"url":"https://velothebest.com/images/product_images/popup_images/7271_0.jpg","art":43568,"color":"purple","addFavorites":false},
    {"id":8,"name":"Bulls Fixed Gear Recreation ","price":28000,"url":"https://velothebest.com/images/product_images/popup_images/post_2187.jpg","art":8765,"color":"black","addFavorites":false},
    {"id":9,"name":"SCOOL xxlitl","price":6300,"url":"https://velothebest.com/images/product_images/popup_images/post_3193.jpg","art":87643,"color":"white","addFavorites":false},
    {"id":10,"name":"SCOOL nixe","price":6000,"url":"https://velothebest.com/images/product_images/popup_images/post_5543.jpg","art":8764,"color":"purple","addFavorites":false}

 ]






